1	1.044518	1.043393	1.039112	1.044521
2	1.358367	1.687516	0.694379	0.615123
3	1.025266	1.165183	0.527511	0.508278
4 	0.854932	1.128324	0.478130	0.434468
5 	0.728552	1.016116	0.431435	0.397645
6 	0.698848	0.969249	0.454373	0.392389
7 	0.635617	0.879844	0.426298	0.376846
8	0.682468	0.913835	0.460788	0.377953

CORES, STATIC 100, dynamic 100, STATIC, dynamic, 10000

